<svg version="1.1" id="Layer_1" xmlns="http://www.w3.org/2000/svg" xmlns:xlink="http://www.w3.org/1999/xlink" x="0px" y="0px"
	 width="100%" viewBox="0 0 1024 1024" enable-background="new 0 0 1024 1024" xml:space="preserve">
<path fill="#000000" opacity="1.000000" stroke="none" 
	d="
M341.816284,174.857590 
	C347.888519,164.286987 353.867035,154.082947 359.631348,143.759323 
	C361.533325,140.352966 363.851074,138.794952 367.938934,138.799225 
	C470.913910,138.906952 573.889038,138.914322 676.864075,138.834290 
	C680.740601,138.831268 682.909607,140.305618 684.769653,143.540817 
	C720.637268,205.927124 756.577454,268.271698 792.517639,330.616333 
	C807.991211,357.458069 823.444092,384.312103 839.057678,411.072266 
	C841.049927,414.486816 841.231750,417.063690 839.170776,420.616455 
	C812.425171,466.721436 785.843872,512.921753 759.234131,559.105530 
	C734.620789,601.824219 709.973267,644.523376 685.499329,687.321777 
	C683.177795,691.381653 680.720764,693.245728 675.792847,693.238098 
	C573.817749,693.078918 471.842255,693.063293 369.867126,693.209045 
	C364.471863,693.216736 361.553436,691.435852 358.897766,686.786926 
	C331.219177,638.333252 303.333069,589.997925 275.455475,541.658081 
	C252.156464,501.257538 228.845627,460.863464 205.364868,420.568604 
	C203.278412,416.988098 203.515045,414.437347 205.487701,411.032166 
	C236.046890,358.281281 266.490814,305.463593 296.956665,252.658630 
	C311.855896,226.834534 326.745239,201.004761 341.816284,174.857590 
M735.775452,545.339111 
	C759.960388,503.526794 784.115784,461.697296 808.391418,419.937653 
	C810.155518,416.903076 809.899231,414.684265 808.192017,411.747742 
	C789.942688,380.357697 771.827209,348.889771 753.695618,317.431305 
	C725.665466,268.798767 697.615845,220.177307 669.700134,171.479187 
	C667.536194,167.704239 665.114990,166.190582 660.647766,166.197281 
	C568.506592,166.335556 476.365082,166.345139 384.223969,166.198807 
	C379.527740,166.191345 377.080353,167.856384 374.840332,171.750427 
	C328.830078,251.734711 282.728149,331.666321 236.530609,411.542572 
	C234.582550,414.910736 234.743744,417.396667 236.620224,420.644592 
	C282.866760,500.690948 329.047852,580.775208 375.125031,660.919189 
	C377.234619,664.588501 379.656433,665.895142 383.837555,665.889587 
	C475.978729,665.766357 568.120117,665.744568 660.261292,665.845520 
	C664.606567,665.850281 667.248596,664.629150 669.446655,660.784851 
	C691.354431,622.468506 713.421204,584.243103 735.775452,545.339111 
z"/>
<path fill="#000000" opacity="1.000000" stroke="none" 
	d="
M90.829353,824.081726 
	C66.499786,785.675781 87.121613,735.505371 131.373596,725.368530 
	C167.984207,716.982117 205.546951,744.587158 209.406509,781.876343 
	C211.081512,798.059387 206.782547,812.464478 198.153488,826.338623 
	C202.473740,827.841614 206.597900,826.961548 210.583145,826.942383 
	C215.464615,826.918945 217.565826,828.651001 217.176010,833.721924 
	C216.819717,838.356689 217.021439,843.040955 217.106903,847.700989 
	C217.168732,851.071228 215.740814,852.443176 212.309265,852.395874 
	C202.654510,852.262512 192.996704,852.338562 183.340134,852.349854 
	C171.201752,852.364136 159.082001,852.740173 146.946457,853.235413 
	C123.074890,854.209473 104.602943,843.818298 90.829353,824.081726 
M148.305374,827.999451 
	C151.132065,827.828613 153.915802,827.513000 156.635834,826.594299 
	C174.974747,820.400085 185.321396,802.644592 182.657715,781.847107 
	C179.257538,755.299133 147.994507,740.563599 125.405014,754.861572 
	C110.577347,764.246704 103.809875,782.628601 108.588760,799.762207 
	C112.825203,814.950989 127.808548,829.374817 148.305374,827.999451 
z"/>
<path fill="#000000" opacity="1.000000" stroke="none" 
	d="
M599.972107,789.000000 
	C599.969360,811.857788 599.969360,834.215637 599.969360,856.573425 
	C599.309875,856.800232 598.650452,857.026978 597.990967,857.253784 
	C569.521362,831.527100 541.051819,805.800415 512.340576,779.855347 
	C510.845032,781.784485 511.329895,783.628418 511.328705,785.302795 
	C511.313965,805.796265 511.230286,826.291138 511.465332,846.782166 
	C511.516571,851.250610 510.054596,852.694641 505.724976,852.428772 
	C500.744873,852.122986 495.724762,852.171997 490.736420,852.392151 
	C486.801605,852.565796 485.508972,851.003174 485.540710,847.133545 
	C485.686829,829.306946 485.631958,811.478577 485.619843,793.650879 
	C485.604370,770.824890 485.557098,747.998962 485.537842,725.172974 
	C485.536621,723.718323 485.101532,722.162476 487.168549,719.949524 
	C515.700562,746.347839 544.233154,772.746704 572.765686,799.145569 
	C573.179565,798.965088 573.593384,798.784607 574.007202,798.604126 
	C574.007202,795.678284 574.020264,792.752380 574.005127,789.826599 
	C573.904480,770.333374 573.784424,750.840271 573.700684,731.346924 
	C573.673462,725.025452 573.864197,724.866333 580.076660,724.837402 
	C583.908691,724.819580 587.740906,724.812988 591.572998,724.821777 
	C599.983521,724.841187 599.987061,724.846436 599.987549,733.517029 
	C599.988281,746.346252 599.983643,759.175537 599.980774,772.004761 
	C599.979492,777.503174 599.976868,783.001587 599.972107,789.000000 
z"/>
<path fill="#000000" opacity="1.000000" stroke="none" 
	d="
M780.000000,724.838074 
	C790.998840,724.834839 801.497681,724.817810 811.996521,724.834473 
	C818.190369,724.844360 818.334351,725.008362 818.354126,731.374512 
	C818.368042,735.873962 818.169739,740.383545 818.411560,744.870056 
	C818.634277,749.002136 817.020569,750.423340 812.901306,750.380859 
	C796.404785,750.210510 779.902954,750.460022 763.409241,750.185303 
	C758.602966,750.105286 756.867615,751.504639 757.240234,756.371704 
	C757.633423,761.507629 757.507874,766.705505 757.268311,771.860413 
	C757.095276,775.584045 758.478699,776.802673 762.169556,776.759277 
	C776.499451,776.590454 790.835876,776.846985 805.161987,776.556824 
	C809.977478,776.459290 811.762390,777.949036 811.397339,782.784363 
	C811.046997,787.424377 811.085266,792.125305 811.376343,796.772888 
	C811.645813,801.075439 809.744324,802.206543 805.793274,802.161499 
	C791.629822,802.000244 777.461548,802.199463 763.300110,801.963684 
	C758.864441,801.889832 756.940063,803.026245 757.239502,807.836243 
	C757.629578,814.100586 757.334961,820.407654 757.334961,827.049377 
	C764.886841,827.049377 771.831726,827.049622 778.776550,827.049255 
	C790.775208,827.048645 802.775024,827.139893 814.771973,826.996460 
	C818.924683,826.946899 820.837219,828.147461 820.469788,832.721558 
	C820.057434,837.855042 820.282776,843.047791 820.387390,848.211609 
	C820.447144,851.158813 819.314575,852.387756 816.283508,852.379639 
	C789.619995,852.308472 762.956055,852.263672 736.292847,852.375732 
	C731.882996,852.394287 731.580383,850.004456 731.586670,846.630676 
	C731.633057,821.633545 731.640198,796.636169 731.560547,771.639099 
	C731.518127,758.312073 731.212036,744.986084 731.157043,731.658997 
	C731.130859,725.306824 731.679749,724.872925 738.004272,724.861694 
	C751.836182,724.837158 765.668091,724.844299 780.000000,724.838074 
z"/>
<path fill="#000000" opacity="1.000000" stroke="none" 
	d="
M890.837585,761.126465 
	C892.040466,762.688599 892.489380,764.434509 894.201843,765.170471 
	C896.145996,764.404846 896.582703,762.464355 897.444702,760.943054 
	C903.438477,750.364258 909.442627,739.789185 915.240723,729.102966 
	C916.871826,726.096680 918.881531,724.732605 922.335815,724.801086 
	C930.590759,724.964600 938.851135,724.853821 946.967285,724.853821 
	C947.870789,728.359314 945.781799,729.967102 944.613770,731.830139 
	C933.732422,749.187256 922.867676,766.556580 911.756104,783.766052 
	C909.431213,787.366760 909.399109,789.964600 911.806030,793.584778 
	C923.426208,811.062561 934.748901,828.738159 946.162537,846.353149 
	C947.137878,847.858398 948.424072,849.241577 948.517822,851.181763 
	C947.232910,852.932007 945.429993,852.317932 943.881104,852.331238 
	C936.550720,852.394165 929.214905,852.195190 921.890625,852.413025 
	C918.324707,852.518982 916.128723,851.342896 914.191711,848.261902 
	C906.834534,836.559448 899.193481,825.035278 891.640076,813.456543 
	C891.019958,812.506042 890.260193,811.646606 889.016174,810.032288 
	C885.407715,816.351990 882.048584,822.192078 878.731262,828.055725 
	C874.794617,835.013977 870.887207,841.988770 866.982056,848.964783 
	C865.974060,850.765442 864.892639,852.353699 862.480103,852.333374 
	C853.653931,852.258911 844.827209,852.244080 836.001038,852.165161 
	C835.576294,852.161377 835.155151,851.761353 834.759949,851.559937 
	C834.213928,849.543091 835.633179,848.358826 836.481995,847.011169 
	C848.110107,828.548462 859.680603,810.048340 871.495300,791.705627 
	C873.709412,788.268188 873.844727,785.793152 871.545349,782.296265 
	C860.473938,765.458923 849.679749,748.439026 838.830383,731.456299 
	C837.781799,729.815002 836.294128,728.332886 836.253235,726.165955 
	C837.599365,724.311218 839.583008,724.891663 841.323486,724.873047 
	C848.153809,724.799988 854.994995,725.051819 861.812744,724.747803 
	C866.028076,724.559814 868.524170,726.203491 870.691162,729.700684 
	C877.182617,740.176758 883.967896,750.470764 890.837585,761.126465 
z"/>
<path fill="#000000" opacity="1.000000" stroke="none" 
	d="
M341.242584,796.990112 
	C341.605194,810.571228 340.051422,823.217834 331.463867,833.806335 
	C317.302582,851.267334 298.537659,856.457214 277.251831,852.126160 
	C257.252533,848.056946 244.078568,835.850220 239.282913,815.585022 
	C238.371475,811.733521 238.024338,807.668518 238.004486,803.699097 
	C237.885376,779.873169 237.924026,756.046326 237.941269,732.219788 
	C237.946487,725.015808 238.127167,724.874084 245.153702,724.856934 
	C249.652390,724.845947 254.163574,725.058105 258.646393,724.789856 
	C263.341583,724.508789 264.195496,726.995850 264.182007,730.940552 
	C264.101715,754.433533 264.879578,777.958435 263.880951,801.409180 
	C263.208221,817.207642 277.755737,830.572632 294.506104,827.757385 
	C306.889587,825.676025 315.767944,814.341187 315.524567,801.847961 
	C315.057434,777.871582 315.305481,753.881287 315.249054,729.896790 
	C315.241058,726.499695 316.519440,724.654480 320.302521,724.803589 
	C325.459534,725.006775 330.639221,725.029785 335.793518,724.791138 
	C340.479614,724.574158 341.303864,727.073425 341.287811,731.011169 
	C341.198883,752.837891 341.243652,774.665222 341.242584,796.990112 
z"/>
<path fill="#000000" opacity="1.000000" stroke="none" 
	d="
M378.289459,850.645752 
	C376.411072,853.022278 374.092987,852.296936 372.015594,852.326050 
	C365.891357,852.412109 359.765198,852.356750 352.139435,852.356750 
	C371.443146,807.797058 390.265442,764.348633 409.087738,720.900208 
	C409.832367,720.860840 410.576965,720.821411 411.321594,720.781982 
	C430.161896,764.220337 449.002228,807.658691 468.330750,852.222595 
	C458.231506,852.222595 449.338562,852.259460 440.446350,852.194824 
	C438.406555,852.179932 437.805511,850.377502 437.181641,848.847168 
	C434.982574,843.452942 432.693268,838.088318 430.729736,832.608032 
	C429.617859,829.504700 427.957520,828.168701 424.528015,828.230164 
	C413.873047,828.421204 403.209839,828.435791 392.555573,828.225708 
	C388.922668,828.154114 387.216156,829.585083 385.966797,832.846741 
	C383.707031,838.746338 381.005066,844.476501 378.289459,850.645752 
M407.543945,805.937439 
	C411.393738,805.595520 415.392059,806.698608 419.716522,804.841309 
	C416.201385,796.021423 412.805237,787.500122 408.879883,777.651062 
	C404.742371,787.678772 401.174805,796.325195 397.568573,805.065186 
	C400.953278,806.417053 403.807831,805.729126 407.543945,805.937439 
z"/>
<path fill="#000000" opacity="1.000000" stroke="none" 
	d="
M651.967651,785.000000 
	C651.952881,775.508179 651.940002,766.516296 651.924744,757.524475 
	C651.912476,750.283386 651.911194,750.280029 644.904663,750.279297 
	C639.076660,750.278748 633.246582,750.197144 627.421326,750.326111 
	C624.011292,750.401611 622.595764,748.993835 622.678528,745.578247 
	C622.811523,740.086487 622.774231,734.588318 622.693481,729.094604 
	C622.650208,726.156616 623.933838,724.829895 626.862549,724.832764 
	C652.672363,724.858093 678.482300,724.874878 704.291992,724.831421 
	C707.543823,724.825989 708.846802,726.475281 708.801941,729.431152 
	C708.713623,735.252991 708.495850,741.072754 708.373352,746.894226 
	C708.309143,749.945312 706.275513,750.264465 703.926453,750.263306 
	C697.765381,750.260437 691.604309,750.271973 685.443237,750.286377 
	C678.234619,750.303345 678.231812,750.307312 678.232666,757.304749 
	C678.236206,786.611511 678.246643,815.918274 678.242493,845.225037 
	C678.241516,852.347900 678.220398,852.349731 670.990112,852.349365 
	C666.660706,852.349121 662.312500,852.088318 658.007019,852.407349 
	C653.423828,852.746948 651.802673,851.011414 651.880127,846.443726 
	C652.091919,833.958435 651.971130,821.467529 651.976013,808.978821 
	C651.979126,801.152527 651.971375,793.326294 651.967651,785.000000 
z"/>
<path fill="#000000" opacity="1.000000" stroke="none" 
	d="
M518.033936,439.950409 
	C505.109039,425.122192 492.369690,410.602753 479.768402,395.964539 
	C477.246704,393.035187 474.245972,391.291534 470.630157,390.257874 
	C455.598083,385.960785 440.563629,381.670715 425.561279,377.271576 
	C403.029755,370.664734 388.600983,356.163086 383.412354,333.087769 
	C381.732117,325.615265 381.599518,317.915436 381.860931,310.242218 
	C381.955139,307.476776 383.280762,305.987122 385.956696,305.440704 
	C404.763855,301.600342 421.262939,304.963867 434.356964,320.186340 
	C453.143890,342.027130 472.141724,363.686401 491.032593,385.437927 
	C492.486694,387.112213 493.901520,388.092987 496.144562,386.643280 
	C501.330780,383.291382 506.962311,380.890167 513.602722,379.399811 
	C508.458954,371.764496 502.510223,365.535370 496.913513,359.054657 
	C481.238495,340.903809 465.302673,322.977661 449.677216,304.784668 
	C438.069702,291.269867 423.572815,284.401184 405.788849,285.130219 
	C401.122101,285.321503 399.393219,283.478241 398.061462,279.435486 
	C392.197266,261.633759 393.131226,244.408051 403.646851,228.749847 
	C415.962708,210.410950 433.729553,201.618607 455.846497,203.840134 
	C476.369019,205.901520 490.709839,217.514404 500.040771,235.637344 
	C505.491333,246.223648 506.783936,257.845856 508.250183,269.365295 
	C511.519714,295.051605 514.488159,320.776123 517.622009,346.479858 
	C518.786987,356.035126 520.296814,365.554535 521.199768,375.132690 
	C521.610657,379.491272 524.031189,379.599182 527.301880,379.686676 
	C531.497681,379.798920 530.746948,376.953308 530.628906,374.571625 
	C530.114624,364.194916 531.177429,354.151825 537.784485,345.635895 
	C547.647339,332.923523 560.275635,326.013306 576.811523,328.492279 
	C580.479248,329.042145 582.714111,328.108246 584.677246,324.964172 
	C591.201416,314.515106 592.295837,303.199127 590.656555,291.341125 
	C590.309875,288.833527 588.392090,287.857086 586.560608,286.668060 
	C579.785278,282.269440 577.305725,275.794922 579.765991,269.152161 
	C582.296509,262.319916 588.375732,258.298859 595.220276,258.929871 
	C602.065491,259.560944 607.865112,265.410339 608.920105,272.768219 
	C609.013794,273.421753 609.255249,274.218781 608.997253,274.732910 
	C606.111816,280.482666 608.405884,286.127441 609.348511,291.752747 
	C611.896545,306.959290 608.201294,320.780762 600.402893,333.759033 
	C599.725647,334.886169 599.146179,336.072113 598.431335,337.397583 
	C602.215576,341.701141 606.535767,345.391266 609.542725,350.250854 
	C611.078247,352.732483 613.141479,350.805328 614.815125,350.021637 
	C627.385193,344.134979 640.496216,343.571411 653.917542,345.916565 
	C654.899048,346.088074 655.860596,346.379517 656.826050,346.635651 
	C662.447693,348.127075 667.397583,351.023254 673.982849,350.143524 
	C680.718628,349.243713 686.305115,355.479919 687.258728,361.996887 
	C688.329346,369.313110 685.221863,375.592041 679.242432,378.194519 
	C673.123535,380.857666 664.971619,378.707245 660.567993,373.657623 
	C657.988770,370.700073 658.471863,365.502380 653.069824,364.532196 
	C645.017761,363.086090 637.185547,361.976044 628.941772,363.951080 
	C620.355408,366.008240 616.247314,369.719055 615.730164,379.492126 
	C614.770020,397.634979 599.455627,412.002106 581.424255,414.489746 
	C575.849731,415.258850 570.523804,414.907684 565.133301,413.726044 
	C562.806091,413.215912 560.132874,412.572296 559.598877,415.934937 
	C559.126709,418.908020 558.271301,422.051758 562.977661,423.262329 
	C590.350769,430.303223 617.685059,437.498749 644.982666,444.827576 
	C657.985107,448.318481 671.292358,450.785156 683.891724,455.663788 
	C704.127441,463.499329 717.752869,477.635742 721.586304,499.251526 
	C725.341797,520.427673 719.503479,539.162537 702.217834,552.801392 
	C684.306458,566.933960 664.406128,568.929321 643.531921,559.652588 
	C635.533264,556.097900 635.550415,555.938660 636.590759,547.227173 
	C638.592651,530.463623 633.391907,516.000977 622.512451,503.431641 
	C602.147522,479.903564 581.699097,456.447784 561.261597,432.982605 
	C560.305664,431.885010 559.119141,430.988281 557.573303,429.569733 
	C554.103210,435.862671 551.657654,442.263092 546.991516,447.332794 
	C545.611084,448.832550 547.515137,450.417908 548.549805,451.612823 
	C562.060974,467.216797 575.622253,482.777344 589.152893,498.364441 
	C594.717407,504.774628 600.405518,511.087219 605.746094,517.680115 
	C617.834961,532.603882 618.290405,549.275696 612.698242,566.771057 
	C612.102966,568.633301 611.146362,569.435669 609.098755,569.338745 
	C583.920715,568.147400 563.382202,559.277466 552.251526,534.953430 
	C548.114563,525.912842 547.526062,515.989746 545.670837,506.393188 
	C543.245667,493.848236 542.581482,481.030823 539.826172,468.521881 
	C539.148010,465.443207 537.898865,462.989532 535.863159,460.672424 
	C529.927490,453.916168 524.123657,447.044098 518.033936,439.950409 
z"/>
<path fill="#000000" opacity="1.000000" stroke="none" 
	d="
M357.960022,485.245667 
	C359.651764,479.356567 360.147614,473.492218 364.067719,467.432617 
	C392.612091,500.276459 420.676270,532.567810 449.140717,565.319702 
	C442.870636,569.122437 436.562103,568.514893 430.629883,568.999268 
	C415.470642,570.237183 400.784058,567.445923 386.555237,562.350220 
	C379.127869,559.690308 371.559509,557.980591 363.724915,557.375977 
	C361.256226,557.185486 359.165955,556.486633 359.931274,553.540283 
	C361.944336,545.790344 359.814209,538.314758 358.454254,530.870911 
	C355.700378,515.796631 355.890503,500.759460 357.960022,485.245667 
z"/>
<path fill="#000000" opacity="1.000000" stroke="none" 
	d="
M442.388184,474.614929 
	C460.130157,494.975220 477.587952,515.115112 495.167023,535.148621 
	C497.643433,537.970825 497.879761,539.869995 494.951935,542.608276 
	C489.929871,547.305115 484.511078,551.370300 478.690308,554.988220 
	C475.870270,556.740967 473.977783,556.821899 471.536133,553.960876 
	C459.005249,539.277649 446.202759,524.826538 433.526184,510.267365 
	C415.493652,489.556793 397.566437,468.753540 379.388977,448.171173 
	C376.582611,444.993469 376.526306,442.816833 378.991333,439.595215 
	C383.283081,433.986298 388.153564,429.082489 393.829193,424.875610 
	C396.378479,422.985992 397.846802,423.102203 399.978088,425.596405 
	C413.937531,441.932678 428.068024,458.122803 442.388184,474.614929 
z"/>
<path fill="#000000" opacity="1.000000" stroke="none" 
	d="
M515.252930,516.027771 
	C512.355469,519.698303 510.987427,516.416382 509.727234,514.987122 
	C501.808655,506.005829 494.091156,496.847778 486.228210,487.816925 
	C465.911255,464.482056 445.543610,441.191315 425.227173,417.855988 
	C423.300049,415.642517 421.086334,413.579498 419.963043,410.250061 
	C430.305573,405.445465 440.938354,403.841034 452.038361,405.123474 
	C453.770721,405.323608 454.856506,406.818237 455.945923,408.074921 
	C477.518768,432.960938 499.056458,457.877594 520.691650,482.709320 
	C522.762207,485.085754 523.418945,487.527679 522.957581,490.489014 
	C521.594666,499.237854 519.471375,507.756226 515.252930,516.027771 
z"/>
</svg>